{
  "type": "service_account",
  "project_id": "kyocera-58f51",
  "private_key_id": "f8672a3aa16a7294b4de22b1bd1df0e9692f6ecf",
  "private_key": "-----BEGIN PRIVATE KEY-----\nMIIEvQIBADANBgkqhkiG9w0BAQEFAASCBKcwggSjAgEAAoIBAQCRLsHfG/S3h592\n/dluwS0fh407EVd7/o3t1ou6l9UBTAEJjaRFkveGIEVEAOfBupLHe3kVxpnWg3aM\nGvhOfgv0/xjAvFNcW0OK+eoTa7B9APurFI1zzP2AaqHv3xnce9oJQZh0aloF7C1X\n/4dYV5c8BwiPjUlONzICcMbwUuNpRbA9xwfKycbWmaBfWT0zvACfoPBmK9El1SHg\nZ7+BQcgNZQ4fG0+RD51KRhl09Ed3yDr+lsM0x/yO14D6i5AII0fXb+YuXvU3X+IO\n2uL9Nl6lnR5lJ8QYftXycFzLwxJVSYHA0v917+ex68ebrGcBhTotwv9yL8j8MWK5\nSjx3tQCJAgMBAAECggEABY3XiTICwtH+QJPwhq3+4cG9SOuzwEDE7Drfcz7OEskg\nvF1TUf1lLm07SSE3EdsR324dUT8c8S8WphXStv9XyhfHj3laP7fBazvT/8ndtsKG\ns4z15l61ZKgaVC4MSWThj/tsRNPcEsruEdDq5sR0ZYL9XwSFhTz+UvKT4cDCBhZq\nIzs88XdSAhazoHDIAG5pueUor1cd15uQS0IgNCIw8fvoLuC1oLpe8oYeH/n5v+eq\n23YSUz+QcPS6/ALq+x6FypptVA5hWiQ3aWqA3UyVCWkkvQXqZ2LVKUSg07RfCZ/T\npCIhZJOY+1GFaeSD4R+KlK3aLD89gy/e/+v6L4SwwQKBgQDMpers5n+zPFJ2bjt1\nq1jP94Rp1GqNUo3AuOuQoA3pVHyPFXvGD/nYPoHWhB6bHP3yEbD5RSgIiZ0+0zvA\nMn+bR4YAWtYMRAWLvH/AJdmcfrGj8HJAgKezOSUi6gRHgOiO4QLA/8dWmZXWcu60\nyyLNYkFdYG75jC8Vq4fXMUChUQKBgQC1nO1CHTinI9RBDfzw2PV1rwyoJU2gdvvD\nF+NMYRXxzGikDnNBisBWzD/QKZzyU83mYPMnE4bd07jX7/IPpdX0OoeXqjYK0F/H\nCN1LVHdbanIGBQFEoVRHwu4yV8uMShI7HofY5QxG8JCLgMx9rl5e9DP2KV2nls38\naP6cZYZduQKBgGe0sN9KU25F5FgFtnYD1ebVvLFQpoplSlZen2lT4pjaaqCrt2SA\nVhEiY/OMUmIyh/HyyycWx5nD+v6KVt4n+Qh8b0igv5XJprHQXUDHLYajoWu9fnh3\negRVsh8GThLaHX/CQP4C4EZfYFIjPho6UrGX2B30r2gghP/LQ/RmDiVxAoGAaZms\nz4OkPHN16LnUeMr+twYpCuBd6c8lhwQt02ykUOu1cKdCVzrxqcar2ENKEhGuqKV4\n3SDai8OfOFg53OVlqdQaoZKER/dvqZC69CFSIaKcWGmymhBgrDVpQXaRUaqEPUH8\nZZ6Ra/JXafZjcTThhL7kM99LqLXkYj8+xPu3jGkCgYEAq2YXiELEbcVqOjn3MSNd\nSpKuGbHbk0CTMIwBJDNBzXp8b7/BUl8ncIfE1e4+KXWunNmwcDxg27JiZx+V28bc\nXoOpuPO/3mjGP3bxEACTuJZ3thRLUwCIgT4NBsFyVxl5aNs4r6oflbAUI5Y9o7ve\nr5d1ED1VPZrMmkdWZTVinMo=\n-----END PRIVATE KEY-----\n",
  "client_email": "firebase-adminsdk-rkmm5@kyocera-58f51.iam.gserviceaccount.com",
  "client_id": "107798748702657409041",
  "auth_uri": "https://accounts.google.com/o/oauth2/auth",
  "token_uri": "https://oauth2.googleapis.com/token",
  "auth_provider_x509_cert_url": "https://www.googleapis.com/oauth2/v1/certs",
  "client_x509_cert_url": "https://www.googleapis.com/robot/v1/metadata/x509/firebase-adminsdk-rkmm5%40kyocera-58f51.iam.gserviceaccount.com",
  "universe_domain": "googleapis.com"
}
