﻿MODELO,Número de serie,Ubicación,Fecha/hora (obtener datos),Total Impresión ,Total Color,Escaner (Otro)
TASKalfa 5003i,RFU9200602,VW OFICINAS FINSA,15/02/2023-08:06:00,819467,,1607646
TASKalfa 5003i,RFU9200589,TresRios DHL AT&T.,15/02/2023-08:12:00,1080676,,317443
TASKalfa 5003i,RFU9200632,,09/02/2023-20:34:38,1081290,,429
TASKalfa 5003i,RFU9200591,DHL TRES RIOS TR5 AT&T,14/02/2023-10:57:00,219411,,3863
TASKalfa 5002i,W348708393,Despacho Tultiparkll Tepana Nike,11/02/2023-16:48:03,3311730,,294201
TASKalfa 406ci,V786605691,DHL QRO .,08/02/2023-08:18:05,93183,49477,14284
TASKalfa 406ci,V786505141,Nv3 Oficnas P&G,15/02/2023-08:20:04,134769,13820,102151
TASKalfa 358ci,R2Z1600922,MACROCENTRO NV4 MARELLI CORTINA7,15/02/2023-08:16:02,580,83,51
TASKalfa 358ci,R2Z1500884,FINSA-PUEBLA,15/02/2023-08:14:00,21544,4529,4718
TASKalfa 358ci,R2Z1600914,Tlaquepaque,15/02/2023-07:02:02,13152,9203,3638
TASKalfa 356ci,V7B6602335,La Joya,14/02/2023-12:27:00,601634,122417,36222
TASKalfa 356ci,V7B6300815,BRIDGESTONE QUERETARO,15/02/2023-08:25:03,196758,60273,133067
TASKalfa 356ci,V7B6401807,Macrocentro NV2 FORD Ofic.,15/02/2023-06:45:18,14505,7682,1514
TASKalfa 3501i,L7S5814085,,16/07/2021-08:08:13,,,12792
TASKalfa 3252ci,W2R7906310,OFICINAS Mondelez,11/09/2021-09:36:56,,87431,24052
TASKalfa 3212i,R419Y03960,Coatepec Wella Macro3,14/02/2023-19:57:04,1222830,,43017
TASKalfa 3212i,R410704681,NV3ABBOTT OPER.Maquila antes Exp,15/02/2023-08:14:04,266446,,42251
TASKalfa 3212i,R410704792,DHL TRES RIOS TR5 AT&T,15/02/2023-08:14:04,191396,,5975
TASKalfa 3212i,R410704668,MTY AT&T,15/02/2023-08:05:03,527867,,3387
TASKalfa 3212i,R412706728,DHL Macrocentro Nv.2 Church Oper,15/02/2023-08:19:04,81134,,9903
TASKalfa 308ci,RLZ9X00385,,15/02/2023-08:09:00,45026,28190,3717
TASKalfa 308ci,RLZ9X00467,,15/02/2023-08:06:01,392341,2384,116048
TASKalfa 308ci,RLZ9X00403,,14/02/2023-17:46:30,329480,13403,4738
TASKalfa 308ci,RLZ0100933,,15/02/2023-08:19:59,33955,9035,4273
TASKalfa 308ci,RLZ0Y02353,,15/02/2023-08:07:00,33519,15716,5391
TASKalfa 308ci,RLZ2404559,,15/02/2023-08:12:00,13026,4688,2092
TASKalfa 308ci,RLZ2404592,,14/02/2023-14:12:00,93575,14340,15644
TASKalfa 308ci,RLZ2705743,,15/02/2023-08:17:01,20695,6090,2132
TASKalfa 308ci,RLZ2705868,Nv7 Mitsubishi /Astra Zeneka Ofi,14/02/2023-10:07:00,6967,3243,2455
TASKalfa 308ci,RLZ2705783,Macrocentro Nv3 Operaciones Ofic,15/02/2023-08:23:00,10447,4693,2906
TASKalfa 308ci,RLZ2705776,Tultipark Nike RH,14/02/2023-10:58:00,19265,11944,495
TASKalfa 308ci,RLZ2705779,Tultipark Nike Planta Alta,14/02/2023-11:05:00,13119,7371,1049
TASKalfa 306ci,V7E6402102,,15/02/2023-08:23:03,286576,28177,26273
TASKalfa 306ci,V7E6603260,Macrocentro Nv3 ROCHE FARMA,15/02/2023-08:21:00,238118,41822,11940
TASKalfa 306ci,V7E6502922,LLPC1-DHL-MACROCENTRO,15/02/2023-08:06:00,389490,32584,25478
TASKalfa 306ci,V7E6402134,Nv2 LLPC Macrocentro.,15/02/2023-08:11:09,118653,18500,39191
TASKalfa 306ci,V7E6301006,Tlaquepark Guadalajara,15/02/2023-07:06:04,42783,28518,14863
TASKalfa 306ci,V7E6603218,San luis Potosi Oficinas,15/02/2023-06:46:33,86466,53310,8657
TASKalfa 306ci,V7E7703667,MACROCENTRO NV3 ROCHE PHARMA,15/02/2023-08:07:00,69877,36232,6828
TASKalfa 306ci,V7E6301554,MACROCENTRO NV.3 ROCHE FARMA LIN,15/02/2023-08:20:04,25791,13705,1645
TASKalfa 3051ci,L854X07794,Segundo Piso Ala Sur Direccion,15/02/2023-08:22:07,236027,92088,84703
TASKalfa 3011i,V927301399,MONTERREY CONTINENTAL,06/01/2023-07:51:57,2020924,,15279
TASKalfa 2554ci,H551901335,MACROCENTRO NV3 ABBOTT INT 17,15/02/2023-08:15:43,38424,5303,419
TASKalfa 2553ci,RFL0903937,FINSA VW OFICINAS,15/02/2023-08:05:00,162369,130402,467060
TASKalfa 2552ci,W2V7903675,Corporativo 2DO PISO,15/02/2023-08:18:04,204403,52196,113697
FS-2100DN,LQA6739108,,15/02/2023-08:10:11,221030,,
ECOSYS P2040dw,VD27204583,Merida,25/07/2022-14:36:39,60454,,
ECOSYS M8124cidn,VXW8400351,MACROCENTRO NV2 MNTTO.,15/02/2023-08:15:00,122009,69895,38370
ECOSYS M8124cidn,VXW8Y01202,DHL-Corporativo1erPiso-Ala-Sur,15/02/2023-08:20:57,8998,2661,1869
ECOSYS M8124cidn,VXW8Y01103,DHL-Corporativo1erPiso-Ala-Norte,15/02/2023-08:23:11,55810,20995,13642
ECOSYS M8124cidn,VXW9101330,Nv.6 OFICINAS 1ER PISO COLOR,15/02/2023-08:05:00,162239,125397,42781
ECOSYS M4125idn,VKM7Z00339,Veracruz,15/02/2023-01:10:05,691938,,38209
ECOSYS M3655idn,R4P8918111,La Joya Nave 1,14/02/2023-16:13:00,1062411,,16438
ECOSYS M3655idn,R4P8Y22216,Nave 6 Biogen,15/02/2023-08:24:59,422718,,29606
ECOSYS M3655idn,R4P8303222,,03/08/2021-18:03:05,178267,,409696
ECOSYS M3655idn,R4P9942213,DHL La Joya Nv2 MARS,14/02/2023-16:36:00,371662,,12280
ECOSYS M3655idn,R4P8303221,TR5 AT&T,14/02/2023-11:18:00,427534,,1043
ECOSYS M3655idn,R4P9X45732,MACROCENTRO NV3 ABBOTT NAL.,15/02/2023-08:10:00,641150,,406054
ECOSYS M3655idn,R4P9X45745,Nave 6 MSD Shering Plough,15/02/2023-08:11:59,733441,,114696
ECOSYS M3655idn,R4P9X45749,Nave 6 Medical,15/02/2023-08:20:00,198905,,22333
ECOSYS M3655idn,R4P8303219,TULTIPARKlll TEPANA NIKE,14/02/2023-17:23:00,74026,,1067936
ECOSYS M3655idn,R4P9X46384,PARK V QRO. BRIDGESTONE,15/02/2023-08:06:00,393079,,105426
ECOSYS M3655idn,R4P0355421,,14/02/2023-16:11:00,37900,,5667
ECOSYS M3655idn,R4P0Y65448,Macro 3 Wella,14/02/2023-17:27:00,276197,,10435
ECOSYS M3655idn,R4P9X47408,DHL-Chihuahua,14/02/2023-15:37:01,341623,,3720
ECOSYS M3655idn,R4P0355429,La Joya,14/02/2023-12:38:01,203167,,2152
ECOSYS M3655idn,R4P0355416,La joya,14/02/2023-12:54:01,258724,,3361
ECOSYS M3655idn,R4P0354227,La Joya,14/02/2023-13:00:00,566512,,60018
ECOSYS M3655idn,R4P0355218,DHL Tultiparklll,03/02/2023-16:32:53,120985,,15447
ECOSYS M3655idn,R4P0354228,Silao XDOCK,09/09/2022-21:54:36,114207,,173687
ECOSYS M3655idn,R4P1684399,Macro-Nv4 Consolidaciones,15/02/2023-08:20:00,178287,,7281
ECOSYS M3655idn,R4P9X47403,Nave 3,15/02/2023-08:22:01,312068,,8242
ECOSYS M3655idn,R4P9942219,Tultiparklll TEPANA Nike Despach,14/02/2023-10:24:00,839906,,18156
ECOSYS M3655idn,R4P0Y65454,FALCON 1ER PISO,15/02/2023-08:09:00,32783,,22847
ECOSYS M3655idn,R4P2195438,Irapuato Conagra,15/02/2023-08:11:00,64004,,1536
ECOSYS M3655idn,R4P2195419,Irapuato Conagra,15/02/2023-08:19:00,107855,,550
ECOSYS M3655idn,R4P2195425,,15/02/2023-08:23:17,211496,,5683
ECOSYS M3655idn,R4P2195429,DHL MACROCENTRO NV4 CALAHUA,15/02/2023-08:06:03,91763,,1110
ECOSYS M3655idn,R4P1684198,Dhl Macrocentro Nv.3 Abbott ADD,15/02/2023-08:20:00,81952,,45498
ECOSYS M3655idn,R4P2603598,Macrocentro-Nv.6 Neolpharma,15/02/2023-08:17:00,30864,,4741
ECOSYS M3560idn,LSR7903554,PLANTA BAJA,15/02/2023-08:22:00,518515,,100059
ECOSYS M3550idn,LSM5X16260,Silao XDOCK,17/08/2021-08:22:00,785681,,637488
ECOSYS M3550idn,LSM7536933,MTY NL,15/02/2023-08:09:00,942893,,1955
ECOSYS M3550idn,LSM5X16259,Merida,26/07/2022-09:25:10,348902,,22367
ECOSYS M3550idn,LSM5714003,ZACATECAS Sandvick,20/01/2023-16:10:00,534416,,3881
ECOSYS M3145idn,R4V8Y04093,MINAS ,14/02/2023-12:34:00,264278,,2368
ECOSYS M3145idn,R4V8701482,MINAS ,14/02/2023-12:38:53,163052,,99
ECOSYS M3145idn,R4V8701530,MINAS ,14/02/2023-12:51:57,14143,,12874
ECOSYS M3145idn,R4V8Z05127,MINAS ,14/02/2023-13:05:02,227292,,7668
ECOSYS M3145idn,R4V9306313,RECEPCION,14/02/2023-16:08:38,166368,,7793
ECOSYS M3145idn,R4V9407090,Nave-4 Cuenta MGA /antes Edgwell,15/02/2023-08:25:00,146264,,4023
ECOSYS M3145idn,R4V8701523,Nave 6 Siegfried Rhein,15/02/2023-08:09:57,342452,,23864
ECOSYS M3145idn,R4V8701524,Nave 6 Oficinas 1er Piso.,15/02/2023-08:18:00,213076,,29254
ECOSYS M3145idn,R4V8701525,Nave 6 American Eagle,15/02/2023-08:07:00,447086,,1137
ECOSYS M3145idn,R4V8701484,Nave 6 Jhonson Evidencias.,15/02/2023-08:05:00,98685,,214159
ECOSYS M3145idn,R4V9407113,Nave 3 Pharmashare,15/02/2023-08:17:02,173074,,59373
ECOSYS M3145idn,R4V9306144,Ahora Nv4 / Antes Nv6 Cta. Volvo,15/02/2023-08:12:00,302606,,13503
ECOSYS M3145idn,R4V9306137,MACROCENTRO NV7 MAVI,14/02/2023-09:02:02,368995,,18961
ECOSYS M3145idn,R4V9Z11393,Frente a Corporativo Evidencias,15/02/2023-08:13:00,154651,,240781
ECOSYS M3145idn,R4V9Z11397,Nv2 FORD Macrocentro,15/02/2023-08:23:00,44612,,1041
ECOSYS M3145idn,R4V9Z12157,NAVE 4,15/02/2023-08:05:00,147668,,3531
ECOSYS M3145idn,R4V9910041,Nave 2 Trafico,15/02/2023-08:10:02,167408,,165180
ECOSYS M3145idn,R4V9Z11391,Nv2 FORD Macrocentro,15/02/2023-08:17:02,52402,,1113
ECOSYS M3145idn,R4V9Z11392,TULTIPARKlll R.- CORTINA 61,14/02/2023-16:36:00,112180,,35393
ECOSYS M3145idn,R4V8802204,Nv2 FORD Macrocentro,15/02/2023-08:14:00,34195,,60
ECOSYS M3145idn,R4V9407044,Nv2 FORD Macrocentro,15/02/2023-08:21:03,504473,,13541
ECOSYS M3145idn,R4V9Z12158,Macrocentro Nv4 CUERVO,15/02/2023-08:10:00,146237,,159112
ECOSYS M3145idn,R4V9406872,Prologis Tres Rios GSK,15/02/2023-08:10:00,340802,,147744
ECOSYS M3145idn,R4V0X18716,La Joya,14/02/2023-12:26:00,281895,,28015
ECOSYS M3145idn,R4V0112991,La Joya,14/02/2023-13:07:02,61504,,238937
ECOSYS M3145idn,R4V9306310,Sandvick Zacatecas,08/02/2023-08:27:45,212109,,6595
ECOSYS M3145idn,R4V0213097,MACROCENTRO NV7,14/02/2023-10:26:02,15557,,4171
ECOSYS M3145idn,R4V0213105,Nave 6 ,15/02/2023-08:16:00,294534,,28197
ECOSYS M3145idn,R4V2128761,Bayer Lerma,14/02/2023-14:11:59,85977,,75383
ECOSYS M3145idn,R4V2531890,DHL MACROCENTRO NV2 FORD RECIBO ,15/02/2023-08:14:01,18008,,320
ECOSYS M3145idn,R4V2839652,,15/02/2023-08:18:02,4774,,9319
ECOSYS M3145idn,R4V2839784,Macrocentro Nv6 MSD Animal Healt,15/02/2023-08:19:00,17662,,7650
ECOSYS M3040idn,LSD5307642,TULTIPARKIII-ORIFLAME,14/02/2023-19:19:18,609485,,52752
ECOSYS M3040idn,LSD6215170,La Joya Nave 1,26/11/2022-09:26:47,157115,,9422
ECOSYS M3040idn,LSD6617702,MTY NL,14/02/2023-11:32:58,413491,,46
ECOSYS M3040idn,LSD5509114,Pernod Nave 4 Despacho,15/02/2023-08:21:00,341746,,19386
ECOSYS M3040idn,LSD6X19932,Mondelez Puebla,15/02/2023-08:16:00,654664,,120860
ECOSYS M3040idn,LSD6617722,MACRO 3 OFICINAS,14/02/2023-16:25:33,490824,,278012
ECOSYS M3040idn,LSD7X28417,,15/02/2023-07:28:53,13851,,2676
ECOSYS M3040idn,LSD8230946,San Luis Potosi,15/02/2023-08:41:00,128113,,632
ECOSYS M3040idn,LSM5Z17967,Cienega de Flores NVL.,25/10/2022-14:15:25,67896,,8559
ECOSYS M3040idn,LSD4500726,MACROCENTRO NV6 CTA. ORGANON MSD,15/02/2023-08:21:09,158780,,21793
ECOSYS M2640idw,VRA6Y00530,Tlaquepaque,03/02/2023-07:02:00,166774,,27333
ECOSYS M2640idw,VRA8509440,Antes MeLi -Ahora MacroNv3-Abbot,15/02/2023-08:25:02,406734,,46302
ECOSYS M2640idw,VRA9114971,Nv3 Oficinas Abbott Despacho,15/02/2023-08:14:00,643001,,23306
ECOSYS M2640idw,VRA8Y14286,DHL Corporativo,15/02/2023-08:11:00,294917,,92005
ECOSYS M2640idw,VRA9Y17304,Nave 3 MEDTRONIC,15/02/2023-08:24:02,141536,,3247
ECOSYS M2640idw,VRA9Y17278,Macrocentro Nv3 Abbott,15/02/2023-08:17:02,166981,,160
ECOSYS M2640idw,VRA9Y16976,Nave 6 Oficinas,15/02/2023-07:59:25,133079,,1393
ECOSYS M2640idw,VRA9114996,Macrocentro Nv3 Abbvie,15/02/2023-08:15:01,127313,,7925
ECOSYS M2640idw,VRA9115056,Nave 3 Abbott Recibo,15/02/2023-08:14:06,171896,,23120
ECOSYS M2640idw,VRA8Y13992,MACRO 3 OFICINAS Seguridad-Patri,15/02/2023-07:19:02,115893,,2070
ECOSYS M2640idw,VRA9115016,Nave 3 Bristol,15/02/2023-08:13:03,113328,,12527
ECOSYS M2640idw,VRA9115006,Nave 3 Abbott Devoluciones,15/02/2023-08:16:00,62743,,2531
ECOSYS M2640idw,VRA0117852,DHL AXOTLAN NATURA TEPOTZOTLAN E,15/02/2023-05:32:16,148777,,7743
ECOSYS M2640idw,VRA0117865,Hermosillo AT&T,15/02/2023-08:11:02,98405,,19034
ECOSYS M2640idw,VRA0117855,Tres Rios,15/02/2023-08:09:02,198521,,54611
ECOSYS M2640idw,VRA9Z17599,MINAS,15/02/2023-07:51:22,59088,,2482
ECOSYS M2640idw,VRA0X18627,La JOYA,14/02/2023-12:34:04,64481,,532
ECOSYS M2640idw,VRA8X13640,,12/08/2021-08:20:58,19755,,7864
ECOSYS M2640idw,VRA0X18379,Sandvick Zacatecas.,14/02/2023-10:05:00,28794,,7867
ECOSYS M2640idw,VRA0117853,Macro 3 Sumbeam,14/02/2023-09:10:00,77664,,22849
ECOSYS M2640idw,VRA0818279,Puebla antigua antequera,14/02/2023-21:02:53,16270,,878
ECOSYS M2640idw,VRA9916118,TR9  GSK  OPERACIONES,15/02/2023-08:12:05,273840,,55756
ECOSYS M2640idw,VRA1Z26111,Monterrey DHL spl Medtronic Life,05/08/2022-08:22:00,10860,,291
ECOSYS M2640idw,VRA9Z17575,,15/02/2023-08:16:02,15207,,1591
ECOSYS M2640idw,VRA2728389,Nave 6,15/02/2023-08:24:02,105200,,72
ECOSYS M2640idw,VRA2929118,Macrocentro Nv.7,14/02/2023-10:17:00,4093,,198
ECOSYS M2640idw,VRA2929111,Macrocentro Nv.6 STRYKER,15/02/2023-08:22:02,3382,,2269
ECOSYS M2535dn,LZN4300373,Tijuana PI Pacifico AT&T,22/10/2020-13:00:01,89917,,3
ECOSYS M2040dn,VR98533283,La joya ,14/02/2023-13:17:00,441066,,7945
ECOSYS M2040dn,VR98Y48885,Toluca Depot,25/10/2019-12:22:01,813,,243
ECOSYS M2040dn,VR98Y48892,Tlaquepaque,19/05/2020-07:07:01,15118,,91
ECOSYS M2040dn,VR98Y50259,TRES RIOS TR5 SAMSUNG OPER,08/06/2022-12:10:00,4793,,7549
ECOSYS M2040dn,VR99457997,CAT TEPOTZOTLAN CTA BRITIIS PETR,14/02/2023-15:09:26,21680,,1095
ECOSYS M2040dn,VR99865127,Macrocentro Nv3 cerca de MERCK,15/02/2023-08:08:00,455214,,77299
ECOSYS M2040dn,VR99865108,DhlMNAS Medtronic,14/02/2023-10:02:00,104216,,1386
ECOSYS M2040dn,VR99864926,KFZ,13/02/2023-07:10:16,55835,,5618
ECOSYS M2040dn,VR99Y70645,Macrocentro Nv4 HPE,15/02/2023-08:09:58,49147,,314
ECOSYS M2040dn,VR99864941,Macrocentro Nv3 Abbott Muestras ,15/02/2023-08:24:01,304302,,1194
